[gd_scene load_steps=103 format=2]

[ext_resource path="res://img/jupiter/0006.png" type="Texture" id=1]
[ext_resource path="res://img/jupiter/0037.png" type="Texture" id=2]
[ext_resource path="res://img/jupiter/0038.png" type="Texture" id=3]
[ext_resource path="res://img/jupiter/0045.png" type="Texture" id=4]
[ext_resource path="res://img/jupiter/0044.png" type="Texture" id=5]
[ext_resource path="res://img/jupiter/0030.png" type="Texture" id=6]
[ext_resource path="res://img/jupiter/0096.png" type="Texture" id=7]
[ext_resource path="res://img/jupiter/0098.png" type="Texture" id=8]
[ext_resource path="res://img/jupiter/0097.png" type="Texture" id=9]
[ext_resource path="res://img/jupiter/0020.png" type="Texture" id=10]
[ext_resource path="res://img/jupiter/0052.png" type="Texture" id=11]
[ext_resource path="res://img/jupiter/0072.png" type="Texture" id=12]
[ext_resource path="res://img/jupiter/0071.png" type="Texture" id=13]
[ext_resource path="res://img/jupiter/0036.png" type="Texture" id=14]
[ext_resource path="res://img/jupiter/0073.png" type="Texture" id=15]
[ext_resource path="res://img/jupiter/0074.png" type="Texture" id=16]
[ext_resource path="res://img/jupiter/0056.png" type="Texture" id=17]
[ext_resource path="res://img/jupiter/0088.png" type="Texture" id=18]
[ext_resource path="res://img/jupiter/0089.png" type="Texture" id=19]
[ext_resource path="res://img/jupiter/0090.png" type="Texture" id=20]
[ext_resource path="res://img/jupiter/0085.png" type="Texture" id=21]
[ext_resource path="res://img/jupiter/0087.png" type="Texture" id=22]
[ext_resource path="res://img/jupiter/0086.png" type="Texture" id=23]
[ext_resource path="res://img/jupiter/0078.png" type="Texture" id=24]
[ext_resource path="res://img/jupiter/0079.png" type="Texture" id=25]
[ext_resource path="res://img/jupiter/0023.png" type="Texture" id=26]
[ext_resource path="res://img/jupiter/0055.png" type="Texture" id=27]
[ext_resource path="res://img/jupiter/0094.png" type="Texture" id=28]
[ext_resource path="res://img/jupiter/0095.png" type="Texture" id=29]
[ext_resource path="res://img/jupiter/0061.png" type="Texture" id=30]
[ext_resource path="res://img/jupiter/0064.png" type="Texture" id=31]
[ext_resource path="res://img/jupiter/0091.png" type="Texture" id=32]
[ext_resource path="res://img/jupiter/0092.png" type="Texture" id=33]
[ext_resource path="res://img/jupiter/0093.png" type="Texture" id=34]
[ext_resource path="res://img/jupiter/0015.png" type="Texture" id=35]
[ext_resource path="res://img/jupiter/0001.png" type="Texture" id=36]
[ext_resource path="res://img/jupiter/0039.png" type="Texture" id=37]
[ext_resource path="res://img/jupiter/0011.png" type="Texture" id=38]
[ext_resource path="res://img/jupiter/0017.png" type="Texture" id=39]
[ext_resource path="res://img/jupiter/0002.png" type="Texture" id=40]
[ext_resource path="res://Level.gd" type="Script" id=41]
[ext_resource path="res://img/jupiter/0009.png" type="Texture" id=42]
[ext_resource path="res://img/jupiter/0007.png" type="Texture" id=43]
[ext_resource path="res://img/jupiter/0066.png" type="Texture" id=44]
[ext_resource path="res://img/jupiter/0065.png" type="Texture" id=45]
[ext_resource path="res://img/jupiter/0019.png" type="Texture" id=46]
[ext_resource path="res://img/jupiter/0021.png" type="Texture" id=47]
[ext_resource path="res://img/jupiter/0068.png" type="Texture" id=48]
[ext_resource path="res://img/jupiter/0067.png" type="Texture" id=49]
[ext_resource path="res://img/jupiter/0063.png" type="Texture" id=50]
[ext_resource path="res://img/jupiter/0062.png" type="Texture" id=51]
[ext_resource path="res://img/jupiter/0099.png" type="Texture" id=52]
[ext_resource path="res://img/jupiter/0100.png" type="Texture" id=53]
[ext_resource path="res://img/jupiter/0080.png" type="Texture" id=54]
[ext_resource path="res://img/jupiter/0082.png" type="Texture" id=55]
[ext_resource path="res://img/jupiter/0081.png" type="Texture" id=56]
[ext_resource path="res://img/jupiter/0050.png" type="Texture" id=57]
[ext_resource path="res://img/jupiter/0051.png" type="Texture" id=58]
[ext_resource path="res://img/jupiter/0014.png" type="Texture" id=59]
[ext_resource path="res://img/jupiter/0070.png" type="Texture" id=60]
[ext_resource path="res://img/jupiter/0069.png" type="Texture" id=61]
[ext_resource path="res://img/jupiter/0008.png" type="Texture" id=62]
[ext_resource path="res://img/jupiter/0048.png" type="Texture" id=63]
[ext_resource path="res://img/jupiter/0049.png" type="Texture" id=64]
[ext_resource path="res://img/jupiter/0046.png" type="Texture" id=65]
[ext_resource path="res://img/jupiter/0026.png" type="Texture" id=66]
[ext_resource path="res://img/jupiter/0032.png" type="Texture" id=67]
[ext_resource path="res://img/jupiter/0012.png" type="Texture" id=68]
[ext_resource path="res://img/jupiter/0027.png" type="Texture" id=69]
[ext_resource path="res://img/jupiter/0043.png" type="Texture" id=70]
[ext_resource path="res://img/jupiter/0035.png" type="Texture" id=71]
[ext_resource path="res://img/jupiter/0031.png" type="Texture" id=72]
[ext_resource path="res://img/jupiter/0025.png" type="Texture" id=73]
[ext_resource path="res://img/jupiter/0003.png" type="Texture" id=74]
[ext_resource path="res://img/jupiter/0053.png" type="Texture" id=75]
[ext_resource path="res://img/jupiter/0054.png" type="Texture" id=76]
[ext_resource path="res://img/jupiter/0075.png" type="Texture" id=77]
[ext_resource path="res://img/jupiter/0076.png" type="Texture" id=78]
[ext_resource path="res://img/jupiter/0077.png" type="Texture" id=79]
[ext_resource path="res://img/jupiter/0040.png" type="Texture" id=80]
[ext_resource path="res://img/jupiter/0016.png" type="Texture" id=81]
[ext_resource path="res://img/jupiter/0004.png" type="Texture" id=82]
[ext_resource path="res://img/jupiter/0059.png" type="Texture" id=83]
[ext_resource path="res://img/jupiter/0060.png" type="Texture" id=84]
[ext_resource path="res://img/jupiter/0042.png" type="Texture" id=85]
[ext_resource path="res://img/jupiter/0041.png" type="Texture" id=86]
[ext_resource path="res://img/jupiter/0058.png" type="Texture" id=87]
[ext_resource path="res://img/jupiter/0057.png" type="Texture" id=88]
[ext_resource path="res://img/jupiter/0029.png" type="Texture" id=89]
[ext_resource path="res://img/jupiter/0010.png" type="Texture" id=90]
[ext_resource path="res://img/jupiter/0033.png" type="Texture" id=91]
[ext_resource path="res://img/jupiter/0028.png" type="Texture" id=92]
[ext_resource path="res://img/jupiter/0018.png" type="Texture" id=93]
[ext_resource path="res://img/jupiter/0034.png" type="Texture" id=94]
[ext_resource path="res://img/jupiter/0083.png" type="Texture" id=95]
[ext_resource path="res://img/jupiter/0084.png" type="Texture" id=96]
[ext_resource path="res://img/jupiter/0022.png" type="Texture" id=97]
[ext_resource path="res://img/jupiter/0047.png" type="Texture" id=98]
[ext_resource path="res://img/jupiter/0005.png" type="Texture" id=99]
[ext_resource path="res://img/jupiter/0013.png" type="Texture" id=100]
[ext_resource path="res://img/jupiter/0024.png" type="Texture" id=101]

[sub_resource type="SpriteFrames" id=1]
animations = [ {
"frames": [ ExtResource( 36 ), ExtResource( 40 ), ExtResource( 74 ), ExtResource( 82 ), ExtResource( 99 ), ExtResource( 1 ), ExtResource( 43 ), ExtResource( 62 ), ExtResource( 42 ), ExtResource( 90 ), ExtResource( 38 ), ExtResource( 68 ), ExtResource( 100 ), ExtResource( 59 ), ExtResource( 35 ), ExtResource( 81 ), ExtResource( 39 ), ExtResource( 93 ), ExtResource( 46 ), ExtResource( 10 ), ExtResource( 47 ), ExtResource( 97 ), ExtResource( 26 ), ExtResource( 101 ), ExtResource( 73 ), ExtResource( 66 ), ExtResource( 69 ), ExtResource( 92 ), ExtResource( 89 ), ExtResource( 6 ), ExtResource( 72 ), ExtResource( 67 ), ExtResource( 91 ), ExtResource( 94 ), ExtResource( 71 ), ExtResource( 14 ), ExtResource( 2 ), ExtResource( 3 ), ExtResource( 37 ), ExtResource( 80 ), ExtResource( 86 ), ExtResource( 85 ), ExtResource( 70 ), ExtResource( 5 ), ExtResource( 4 ), ExtResource( 65 ), ExtResource( 98 ), ExtResource( 63 ), ExtResource( 64 ), ExtResource( 57 ), ExtResource( 58 ), ExtResource( 11 ), ExtResource( 75 ), ExtResource( 76 ), ExtResource( 27 ), ExtResource( 17 ), ExtResource( 88 ), ExtResource( 87 ), ExtResource( 83 ), ExtResource( 84 ), ExtResource( 30 ), ExtResource( 51 ), ExtResource( 50 ), ExtResource( 31 ), ExtResource( 45 ), ExtResource( 44 ), ExtResource( 49 ), ExtResource( 48 ), ExtResource( 61 ), ExtResource( 60 ), ExtResource( 13 ), ExtResource( 12 ), ExtResource( 15 ), ExtResource( 16 ), ExtResource( 77 ), ExtResource( 78 ), ExtResource( 79 ), ExtResource( 24 ), ExtResource( 25 ), ExtResource( 54 ), ExtResource( 56 ), ExtResource( 55 ), ExtResource( 95 ), ExtResource( 96 ), ExtResource( 21 ), ExtResource( 23 ), ExtResource( 22 ), ExtResource( 18 ), ExtResource( 19 ), ExtResource( 20 ), ExtResource( 32 ), ExtResource( 33 ), ExtResource( 34 ), ExtResource( 28 ), ExtResource( 29 ), ExtResource( 7 ), ExtResource( 9 ), ExtResource( 8 ), ExtResource( 52 ), ExtResource( 53 ) ],
"loop": true,
"name": "jupiter",
"speed": 15.0
} ]

[node name="Level" type="Node"]
script = ExtResource( 41 )

[node name="jupiter" type="AnimatedSprite" parent="."]
position = Vector2( 512, 301 )
scale = Vector2( 1.06667, 1.10741 )
frames = SubResource( 1 )
animation = "jupiter"

[node name="quit" type="Button" parent="jupiter"]
margin_left = -37.4999
margin_top = 2.70901
margin_right = -0.499893
margin_bottom = 22.709
rect_scale = Vector2( 2, 2 )
text = "quit"
__meta__ = {
"_edit_use_anchors_": false
}
[connection signal="pressed" from="jupiter/quit" to="." method="_on_quit_pressed"]
